{
  "parent": "minecraft:block/cube_bottom_top",
  "textures": {
    "top": "minecraft:variated/crimson_nylium/top4",
    "bottom": "minecraft:block/netherrack",
    "side": "minecraft:variated/crimson_nylium/side4"
  }
}
