{
  "parent": "minecraft:block/cube_bottom_top",
  "textures": {
    "top": "minecraft:block/crimson_nylium",
    "bottom": "minecraft:block/basalt_top",
    "side": "minecraft:variated/crimson_nylium/side5"
  }
}
