{
  "parent": "minecraft:block/cube_bottom_top",
  "textures": {
    "top": "minecraft:block/crimson_nylium",
    "bottom": "minecraft:block/soul_sand",
    "side": "minecraft:variated/crimson_nylium/side6"
  }
}
