{
  "variants": {
    "": [
      {
        "model": "block/slime_block"
      },
      {
        "model": "block/slime_block"
      },
      {
        "model": "block/slime_block"
      },
      {
        "model": "block/slime_block/block/0"
      },
      {
        "model": "block/slime_block/block/1"
      },
      {
        "model": "block/slime_block/block/2"
      },
      {
        "model": "block/slime_block/block/3"
      },
      {
        "model": "block/slime_block/block/4"
      },
      {
        "model": "block/slime_block/block/5"
      },
      {
        "model": "block/slime_block/block/6"
      },
      {
        "model": "block/slime_block/block/7"
      },
      {
        "model": "block/slime_block/block/8"
      },
      {
        "model": "block/slime_block/block/9"
      },
      {
        "model": "block/slime_block/block/10"
      },
      {
        "model": "block/slime_block/block/11"
      },
      {
        "model": "block/slime_block/block/12"
      },
      {
        "model": "block/slime_block/block/13"
      },
      {
        "model": "block/slime_block/block/14"
      }
    ]
  }
}
