{
  "parent": "minecraft:block/cube_bottom_top",
  "textures": {
    "top": "minecraft:block/warped_nylium",
    "bottom": "minecraft:block/blackstone",
    "side": "minecraft:variated/warped_nylium/side5"
  }
}
